<svg width="36" height="16" viewBox="0 0 36 16" fill="none" xmlns="http://www.w3.org/2000/svg">
<mask id="mask0_211:3398" style="mask-type:alpha" maskUnits="userSpaceOnUse" x="0" y="0" width="36" height="16">
<rect width="36" height="16" fill="#C4C4C4"/>
</mask>
<g mask="url(#mask0_211:3398)">
<rect x="13" y="14" width="8" height="12" rx="2" transform="rotate(-180 13 14)" fill="#E5E5E5"/>
<rect x="31" y="14" width="8" height="12" rx="2" transform="rotate(-180 31 14)" fill="#E5E5E5"/>
</g>
</svg>
